2-Day [3-Bit Asynchronous Up Counter]/Output.txt
CPU time: .260 seconds to compile + .302 seconds to elab + .393 seconds to link
Chronologic VCS simulator copyright 1991-2021
Contains Synopsys proprietary information.
Compiler version S-2021.09; Runtime version S-2021.09;  Apr 19 15:18 2023
CLK=0  RESET=0 OUTPUT COUNT=x  TIME=0
CLK=1  RESET=0 OUTPUT COUNT=x  TIME=2
CLK=0  RESET=0 OUTPUT COUNT=x  TIME=4
CLK=1  RESET=0 OUTPUT COUNT=x  TIME=6
CLK=0  RESET=0 OUTPUT COUNT=x  TIME=8
CLK=1  RESET=1 OUTPUT COUNT=x  TIME=10
CLK=0  RESET=1 OUTPUT COUNT=0  TIME=12
CLK=1  RESET=1 OUTPUT COUNT=0  TIME=14
CLK=0  RESET=1 OUTPUT COUNT=0  TIME=16
CLK=1  RESET=1 OUTPUT COUNT=0  TIME=18
CLK=0  RESET=0 OUTPUT COUNT=1  TIME=20
CLK=1  RESET=0 OUTPUT COUNT=1  TIME=22
CLK=0  RESET=0 OUTPUT COUNT=2  TIME=24
CLK=1  RESET=0 OUTPUT COUNT=2  TIME=26
CLK=0  RESET=0 OUTPUT COUNT=3  TIME=28
CLK=1  RESET=0 OUTPUT COUNT=3  TIME=30
CLK=0  RESET=0 OUTPUT COUNT=4  TIME=32
CLK=1  RESET=0 OUTPUT COUNT=4  TIME=34
CLK=0  RESET=0 OUTPUT COUNT=5  TIME=36
CLK=1  RESET=0 OUTPUT COUNT=5  TIME=38
CLK=0  RESET=0 OUTPUT COUNT=6  TIME=40
CLK=1  RESET=0 OUTPUT COUNT=6  TIME=42
CLK=0  RESET=0 OUTPUT COUNT=7  TIME=44
CLK=1  RESET=0 OUTPUT COUNT=7  TIME=46
CLK=0  RESET=0 OUTPUT COUNT=0  TIME=48
CLK=1  RESET=0 OUTPUT COUNT=0  TIME=50
CLK=0  RESET=0 OUTPUT COUNT=1  TIME=52
CLK=1  RESET=0 OUTPUT COUNT=1  TIME=54
CLK=0  RESET=0 OUTPUT COUNT=2  TIME=56
CLK=1  RESET=0 OUTPUT COUNT=2  TIME=58
CLK=0  RESET=0 OUTPUT COUNT=3  TIME=60
CLK=1  RESET=0 OUTPUT COUNT=3  TIME=62
CLK=0  RESET=0 OUTPUT COUNT=4  TIME=64
CLK=1  RESET=0 OUTPUT COUNT=4  TIME=66
CLK=0  RESET=0 OUTPUT COUNT=5  TIME=68
CLK=1  RESET=0 OUTPUT COUNT=5  TIME=70
CLK=0  RESET=0 OUTPUT COUNT=6  TIME=72
CLK=1  RESET=0 OUTPUT COUNT=6  TIME=74
CLK=0  RESET=0 OUTPUT COUNT=7  TIME=76
CLK=1  RESET=0 OUTPUT COUNT=7  TIME=78
CLK=0  RESET=0 OUTPUT COUNT=0  TIME=80
CLK=1  RESET=0 OUTPUT COUNT=0  TIME=82
CLK=0  RESET=0 OUTPUT COUNT=1  TIME=84
CLK=1  RESET=0 OUTPUT COUNT=1  TIME=86
CLK=0  RESET=0 OUTPUT COUNT=2  TIME=88
CLK=1  RESET=0 OUTPUT COUNT=2  TIME=90
CLK=0  RESET=0 OUTPUT COUNT=3  TIME=92
CLK=1  RESET=0 OUTPUT COUNT=3  TIME=94
CLK=0  RESET=0 OUTPUT COUNT=4  TIME=96
CLK=1  RESET=0 OUTPUT COUNT=4  TIME=98
$finish called from file "testbench.sv", line 36.
$finish at simulation time                  100
           V C S   S i m u l a t i o n   R e p o r t 
Time: 100 ns
CPU Time:      0.560 seconds;       Data structure size:   0.0Mb
Wed Apr 19 15:18:03 2023
Finding VCD file...
./dump.vcd
[2023-04-19 15:18:04 EDT] Opening EPWave...
Done
